Econ 5120 Macroeconomic Theory
…
library(ggplot2)
library(lubridate)
library(dplyr)

UNEMPLOYMENT_ID <- "UNRATE"
GDP_PC <- "A939RX0Q048SBEA"

unemployment <- fredr(UNEMPLOYMENT_ID, 
                      observation_start = ymd(19900101),
                      observation_end = ymd(20220401),
                      frequency="q")

print(unemployment, n = 5)

# A tibble: 130 × 5
  date       series_id value realtime_start realtime_end
  <date>     <chr>     <dbl> <date>         <date>      
1 1990-01-01 UNRATE      5.3 2022-09-27     2022-09-27  
2 1990-04-01 UNRATE      5.3 2022-09-27     2022-09-27  
3 1990-07-01 UNRATE      5.7 2022-09-27     2022-09-27  
4 1990-10-01 UNRATE      6.1 2022-09-27     2022-09-27  
5 1991-01-01 UNRATE      6.6 2022-09-27     2022-09-27  
# … with 125 more rows

Download GDP Per Capita

gdppc <- fredr(GDP_PC, 
               observation_start = ymd(19900101),
               observation_end = ymd(20220401),
               frequency="q",
               units="pc1")

print(gdppc, n = 5)

# A tibble: 130 × 5
  date       series_id        value realtime_start realtime_end
  <date>     <chr>            <dbl> <date>         <date>      
1 1990-01-01 A939RX0Q048SBEA  1.80  2022-09-27     2022-09-27  
2 1990-04-01 A939RX0Q048SBEA  1.31  2022-09-27     2022-09-27  
3 1990-07-01 A939RX0Q048SBEA  0.552 2022-09-27     2022-09-27  
4 1990-10-01 A939RX0Q048SBEA -0.641 2022-09-27     2022-09-27  
5 1991-01-01 A939RX0Q048SBEA -2.25  2022-09-27     2022-09-27  
# … with 125 more rows

Clean up data series

gdppc <- gdppc %>% 
  select(date, series_id, value) %>% 
  mutate(series_id = "GDP_PC")

unemployment <- unemployment %>% 
  select(date, series_id, value) %>% 
  mutate(series_id = "UNEMPLOYMENT")

print(unemployment, n = 5)

# A tibble: 130 × 3
  date       series_id    value
  <date>     <chr>        <dbl>
1 1990-01-01 UNEMPLOYMENT   5.3
2 1990-04-01 UNEMPLOYMENT   5.3
3 1990-07-01 UNEMPLOYMENT   5.7
4 1990-10-01 UNEMPLOYMENT   6.1
5 1991-01-01 UNEMPLOYMENT   6.6
# … with 125 more rows
…
Wide Data

library(tidyr)

dat_wide <- dat %>% 
  tidyr::pivot_wider(names_from = c("series_id"))

dat_wide %>%
  print(n=10)

# A tibble: 130 × 3
   date       GDP_PC UNEMPLOYMENT
   <date>      <dbl>        <dbl>
 1 1990-01-01  1.80           5.3
 2 1990-04-01  1.31           5.3
 3 1990-07-01  0.552          5.7
 4 1990-10-01 -0.641          6.1
 5 1991-01-01 -2.25           6.6
 6 1991-04-01 -1.85           6.8
 7 1991-07-01 -1.43           6.9
 8 1991-10-01 -0.165          7.1
 9 1992-01-01  1.52           7.4
10 1992-04-01  1.81           7.6
# … with 120 more rows
…
